{
    "success": true,
    "data": [
        {
            "birthday": "1989-10-13",
            "email": "wuhuaxin@yahoo.com",
            "height": 171,
            "id": 1,
            "iq": 91,
            "name": "伍华欣",
            "phone": "13270787041",
            "pinyin": "wǔ huá xīn",
            "qq": "1038132",
            "sex": "女",
            "stuId": "st_0000",
            "wechat": "13270787041",
            "weight": 47.1
        },
        {
            "birthday": "1986-05-24",
            "email": "guodongming@msn.com",
            "height": 174,
            "id": 2,
            "iq": 119,
            "name": "郭东名",
            "phone": "15066193600",
            "pinyin": "guō dōng míng",
            "qq": "9729651913",
            "sex": "男",
            "stuId": "st_0001",
            "wechat": "15066193600",
            "weight": 75.2
        },
        {
            "birthday": "1997-04-29",
            "email": "qiguanbinbian@yahoo.com",
            "height": 173,
            "id": 3,
            "iq": 107,
            "name": "丌官彬边",
            "phone": "15263414574",
            "pinyin": "qí guān bīn biān",
            "qq": "9735633",
            "sex": "男",
            "stuId": "st_0002",
            "wechat": "15263414574",
            "weight": 82.0
        },
        {
            "birthday": "2003-03-16",
            "email": "dongfangmeiyue@live.cn",
            "height": 168,
            "id": 4,
            "iq": 56,
            "name": "东方美月",
            "phone": "13214855918",
            "pinyin": "dōng fāng měi yuè",
            "qq": "1146404",
            "sex": "女",
            "stuId": "st_0003",
            "wechat": "13214855918",
            "weight": 49.3
        },
        {
            "birthday": "2003-08-17",
            "email": "fucong@163.com",
            "height": 162,
            "id": 5,
            "iq": 42,
            "name": "富聪",
            "phone": "15506526165",
            "pinyin": "fù cōng",
            "qq": "9025100176",
            "sex": "女",
            "stuId": "st_0004",
            "wechat": "15506526165",
            "weight": 52.8
        },
        {
            "birthday": "1987-09-11",
            "email": "jingwen@126.com",
            "height": 164,
            "id": 6,
            "iq": 86,
            "name": "经雯",
            "phone": "13522129019",
            "pinyin": "jīng wén",
            "qq": "92433430758",
            "sex": "女",
            "stuId": "st_0005",
            "wechat": "13522129019",
            "weight": 53.6
        },
        {
            "birthday": "1989-07-09",
            "email": "jiacui@hotmail.com",
            "height": 166,
            "id": 7,
            "iq": 75,
            "name": "郏翠",
            "phone": "15535795029",
            "pinyin": "jiá cuì",
            "qq": "14145866",
            "sex": "女",
            "stuId": "st_0006",
            "wechat": "jiacui@hotmail.com",
            "weight": 55.1
        },
        {
            "birthday": "1998-11-28",
            "email": "tangyazhao@263.net",
            "height": 174,
            "id": 8,
            "iq": 111,
            "name": "唐雅兆",
            "phone": "13682695320",
            "pinyin": "táng yǎ zhào",
            "qq": "9797207",
            "sex": "男",
            "stuId": "st_0007",
            "wechat": "13682695320",
            "weight": 80.0
        },
        {
            "birthday": "1992-08-01",
            "email": "weishuangyi@263.net",
            "height": 168,
            "id": 9,
            "iq": 107,
            "name": "魏霜义",
            "phone": "13645531207",
            "pinyin": "wèi shuāng yì",
            "qq": "979028",
            "sex": "男",
            "stuId": "st_0008",
            "wechat": "13645531207",
            "weight": 74.1
        },
        {
            "birthday": "1988-08-20",
            "email": "aowan@263.net",
            "height": 161,
            "id": 10,
            "iq": 61,
            "name": "敖琬",
            "phone": "15744982498",
            "pinyin": "áo wǎn",
            "qq": "97441",
            "sex": "女",
            "stuId": "st_0009",
            "wechat": "15744982498",
            "weight": 54.2
        },
        {
            "birthday": "1987-05-09",
            "email": "baibohui@yahoo.com",
            "height": 181,
            "id": 11,
            "iq": 131,
            "name": "柏波惠",
            "phone": "15985316556",
            "pinyin": "bǎi bō huì",
            "qq": "9257838148",
            "sex": "男",
            "stuId": "st_0010",
            "wechat": "15985316556",
            "weight": 95.2
        },
        {
            "birthday": "1995-08-25",
            "email": "liurou@sohu.com",
            "height": 163,
            "id": 12,
            "iq": 71,
            "name": "刘柔",
            "phone": "15219667857",
            "pinyin": "liú róu",
            "qq": "995054546",
            "sex": "女",
            "stuId": "st_0011",
            "wechat": "15219667857",
            "weight": 54.7
        },
        {
            "birthday": "1993-09-03",
            "email": "pingchen@sina.com",
            "height": 182,
            "id": 13,
            "iq": 71,
            "name": "平辰",
            "phone": "13358288315",
            "pinyin": "píng chén",
            "qq": "92371",
            "sex": "男",
            "stuId": "st_0012",
            "wechat": "13358288315",
            "weight": 64.5
        },
        {
            "birthday": "2000-05-29",
            "email": "yinbao@qq.com",
            "height": 185,
            "id": 14,
            "iq": 119,
            "name": "尹保",
            "phone": "15615354117",
            "pinyin": "yǐn bǎo",
            "qq": "13746941",
            "sex": "男",
            "stuId": "st_0013",
            "wechat": "yinbao@qq.com",
            "weight": 88.3
        },
        {
            "birthday": "1985-08-18",
            "email": "fuweiqing@126.com",
            "height": 170,
            "id": 15,
            "iq": 53,
            "name": "傅薇晴",
            "phone": "13625633676",
            "pinyin": "fù wēi qíng",
            "qq": "9032629",
            "sex": "女",
            "stuId": "st_0014",
            "wechat": "13625633676",
            "weight": 53.5
        }
    ],
    "pi": {
        "endRow": 15,
        "hasNextPage": true,
        "hasPreviousPage": false,
        "isFirstPage": true,
        "isLastPage": false,
        "navigateFirstPage": 1,
        "navigateLastPage": 8,
        "navigatePages": 8,
        "navigatepageNums": [
            1,
            2,
            3,
            4,
            5,
            6,
            7,
            8
        ],
        "nextPage": 2,
        "pageNum": 1,
        "pageSize": 15,
        "pages": 67,
        "prePage": 0,
        "size": 15,
        "startRow": 1,
        "total": 1000
    }
}